Content-Type: text/x-zim-wiki
Wiki-Format: zim 0.4
Creation-Date: 2020-10-31T13:33:28+01:00

====== 1 Introduction ======

**1 TO-DO**
~~-úvod je motivačný, rozšíriť o členenie práce s popisom kapitol~~
